{
    "name": "Sicodoc",
    "alias": "sicodoc",
    "description": "",
    "keywords": [],
    "active": 1,
    "order": 0,
    "providers": [
        "Modules\\Sicodoc\\Providers\\SicodocServiceProvider"
    ],
    "aliases": {},
    "files": [
        "start.php"
    ],
    "requires": []
}
