{
    "name": "ConsultasMedicas",
    "alias": "consultasmedicas",
    "description": "",
    "keywords": [],
    "active": 1,
    "order": 0,
    "providers": [
        "Modules\\ConsultasMedicas\\Providers\\ConsultasMedicasServiceProvider"
    ],
    "aliases": {},
    "files": [
        "start.php"
    ],
    "requires": []
}
